%YAML 1.1
%TAG !u! tag:unity3d.com,2011:
--- !u!78 &1
TagManager:
  serializedVersion: 2
  tags:
  - Car
  - Obstacle
  - Enemy
  - Destroyable
  - WayPoint
  - End
  - RoundPoint
  layers:
  - Default
  - TransparentFX
  - Ignore Raycast
  - 
  - Water
  - UI
  - 
  - 
  - Cars
  - PlayerFlying
  - Player
  - Border
  - Obstacles
  - Enemy
  - Cow
  - Street
  - MiniMapOnly
  - 
  - 
  - 
  - 
  - 
  - 
  - 
  - 
  - 
  - 
  - 
  - 
  - 
  - 
  - 
  m_SortingLayers:
  - name: Default
    uniqueID: 0
    locked: 0
  - name: DirtPart
    uniqueID: 3706993325
    locked: 0
  - name: Player
    uniqueID: 3748460535
    locked: 0
  - name: Enemy
    uniqueID: 468183445
    locked: 0
  - name: Cars
    uniqueID: 114814255
    locked: 0
  - name: Foreground
    uniqueID: 1084893131
    locked: 0
